root\controller\ControllerUsuario.class
root\controller\Controller.class
root\model\dao\exceptions\IllegalOrphanException.class
root\controller\ControllerListado.class
root\model\dao\UsuarioDAO.class
root\model\dao\exceptions\NonexistentEntityException.class
root\model\dao\exceptions\PreexistingEntityException.class
root\model\entities\Usuario.class
