C:\Users\Ripley\Documents\NetBeansProjects\mavenproject8\mavenproject8\mavenproject1\MantUsuarioResp\src\main\java\root\controller\ControllerListado.java
C:\Users\Ripley\Documents\NetBeansProjects\mavenproject8\mavenproject8\mavenproject1\MantUsuarioResp\src\main\java\root\controller\ControllerUsuario.java
C:\Users\Ripley\Documents\NetBeansProjects\mavenproject8\mavenproject8\mavenproject1\MantUsuarioResp\src\main\java\root\model\dao\UsuarioDAO.java
C:\Users\Ripley\Documents\NetBeansProjects\mavenproject8\mavenproject8\mavenproject1\MantUsuarioResp\src\main\java\root\model\dao\exceptions\IllegalOrphanException.java
C:\Users\Ripley\Documents\NetBeansProjects\mavenproject8\mavenproject8\mavenproject1\MantUsuarioResp\src\main\java\root\model\dao\exceptions\PreexistingEntityException.java
C:\Users\Ripley\Documents\NetBeansProjects\mavenproject8\mavenproject8\mavenproject1\MantUsuarioResp\src\main\java\root\model\dao\exceptions\NonexistentEntityException.java
C:\Users\Ripley\Documents\NetBeansProjects\mavenproject8\mavenproject8\mavenproject1\MantUsuarioResp\src\main\java\root\model\entities\Usuario.java
C:\Users\Ripley\Documents\NetBeansProjects\mavenproject8\mavenproject8\mavenproject1\MantUsuarioResp\src\main\java\root\controller\Controller.java
